^D:\WORKSPACE\ESGI-COURS\M2\WINDOWS PARALLELE\JULIA\JULIA\STDAFX.CPP
/c /ZI /nologo /W3 /WX- /sdl /Od /Oy- /D WIN32 /D _DEBUG /D _CONSOLE /D _LIB /D _UNICODE /D UNICODE /Gm /EHsc /RTC1 /MDd /GS /fp:precise /Zc:wchar_t /Zc:forScope /openmp /Yc"stdafx.h" /Fp"DEBUG\JULIA.PCH" /Fo"DEBUG\\" /Fd"DEBUG\VC120.PDB" /Gd /TP /analyze- D:\WORKSPACE\ESGI-COURS\M2\WINDOWS PARALLELE\JULIA\JULIA\STDAFX.CPP
^D:\WORKSPACE\ESGI-COURS\M2\WINDOWS PARALLELE\JULIA\JULIA\EASYBMP.CPP
/c /ZI /nologo /W3 /WX- /sdl /Od /Oy- /D WIN32 /D _DEBUG /D _CONSOLE /D _LIB /D _UNICODE /D UNICODE /Gm /EHsc /RTC1 /MDd /GS /fp:precise /Zc:wchar_t /Zc:forScope /openmp /Fo"DEBUG\\" /Fd"DEBUG\VC120.PDB" /Gd /TP /analyze- D:\WORKSPACE\ESGI-COURS\M2\WINDOWS PARALLELE\JULIA\JULIA\EASYBMP.CPP
^D:\WORKSPACE\ESGI-COURS\M2\WINDOWS PARALLELE\JULIA\JULIA\JULIA.CPP
/c /ZI /nologo /W3 /WX- /sdl /Od /Oy- /D WIN32 /D _DEBUG /D _CONSOLE /D _LIB /D _UNICODE /D UNICODE /Gm /EHsc /RTC1 /MDd /GS /fp:precise /Zc:wchar_t /Zc:forScope /openmp /Fo"DEBUG\\" /Fd"DEBUG\VC120.PDB" /Gd /TP /analyze- D:\WORKSPACE\ESGI-COURS\M2\WINDOWS PARALLELE\JULIA\JULIA\JULIA.CPP
